                                         The SAS System     17:02 Thursday, February 18, 2016   1

                                     Obs           dob    age

                                       1    05/24/1965     51
                                       2    08/01/1951     64
                                       3    11/29/1933     82
                                       4    11/29/1973     42
                                       5    12/30/1972     43
                                       6    12/18/1932     83
                                       7    12/28/1989     26
                                       8    08/25/1946     69
                                       9    03/24/1957     59
                                      10    06/09/1991     25
                                      11    04/29/1946     70
                                      12    11/13/1945     70
                                      13    07/20/1955     60
                                      14    12/19/1972     43
                                      15    09/13/1930     85
                                      16    06/30/1960     56
                                      17    12/15/1965     50
                                      18    02/28/1963     53
                                      19    08/21/1933     82
                                      20    02/23/1947     69
                                      21    08/03/1948     67
                                      22    10/06/1966     49
                                      23    06/23/1987     29
                                      24    12/18/1965     50
                                      25    08/27/1942     73
                                      26    03/01/1988     28
                                      27    11/16/1938     77
                                      28    12/18/1943     72
                                      29    01/08/1937     79
                                      30    04/03/1986     30
